Data Science Specialization Capstone Project Week 2
…
buildNGrams <- function(data, n) {
  startTime <- Sys.time()
  result <- data %>% 
    unnest_tokens(ngram, text, token = "ngrams", n = n) %>%
    dplyr::count(ngram, sort = TRUE)
  elapsedTime <- Sys.time() - startTime
  list(result, elapsedTime)
}

monogramsOutput <- buildNGrams(corpusDF, 1)
monograms <- monogramsOutput[[1]]
monogramsTime <- monogramsOutput[[2]]
monograms

## # A tibble: 215,150 x 2
##    ngram      n
##    <chr>  <int>
##  1 the   475558
##  2 to    276523
##  3 and   240580
##  4 a     238613
##  5 of    200715
##  6 i     164535
##  7 in    164489
##  8 for   110279
##  9 is    107131
## 10 that  103672
## # … with 215,140 more rows
…
